<svg xmlns="http://www.w3.org/2000/svg" width="120" height="64" viewBox="0 0 120 64">
  <g id="Сгруппировать_349" data-name="Сгруппировать 349" transform="translate(-737 -477)">
    <path id="Вычитание_5" data-name="Вычитание 5" d="M68.122,27.1H0V0H68.122V27.1h0ZM46.033,8.4h0V18.566h3.415v3.386H59.691V18.566h3.415V8.4H59.691V5.017H49.448V8.4ZM28.961,15.178h6.829v3.388H39.2v3.386h3.415V18.566H39.2V11.791h3.415V8.4H39.2V5.017H25.546V21.952h3.414V15.178ZM5.059,5.017h0V21.952H8.473V15.178H18.717V11.791h3.415V8.4H18.717V5.017H5.059ZM59.691,18.566H49.448V8.4H59.691V18.566ZM39.2,11.791H28.961V8.4H39.2v3.387Zm-20.488,0H8.473V8.4H18.717v3.387Z" transform="translate(788.878 513.905)" fill="#d3d3d4"/>
    <g id="Сгруппировать_51" data-name="Сгруппировать 51" transform="translate(737 477)">
      <g id="Сгруппировать_48" data-name="Сгруппировать 48" transform="translate(0)">
        <path id="Контур_1" data-name="Контур 1" d="M545.306,632.3l-4.3,7.819c-1.114,2.025-2.637,3.581-5.552,3.581-4.591,0-7.363-5.136-5.083-9.291l9.386-17.1a6.094,6.094,0,0,1,11.1,0l9.385,17.1c2.281,4.155-.492,9.291-5.083,9.291-2.915,0-4.438-1.556-5.552-3.581l-4.3-7.819Z" transform="translate(-482.219 -613.728)" fill="#1f1f1f" fill-rule="evenodd"/>
        <path id="Контур_2" data-name="Контур 2" d="M401.562,637.693a6.051,6.051,0,0,1-12.1,0V619.737a6.051,6.051,0,0,1,12.1,0v17.956Z" transform="translate(-389.459 -613.728)" fill="#1f1f1f" fill-rule="evenodd"/>
        <path id="Контур_3" data-name="Контур 3" d="M644.985,637.62a6.057,6.057,0,0,1-12.113.02V627.074a13.463,13.463,0,0,1,13.365-13.4,6.06,6.06,0,0,1,6.213,6,6,6,0,0,1-6.057,6,1.4,1.4,0,0,0-1.408,1.4V637.62Z" transform="translate(-548.694 -613.67)" fill="#1f1f1f" fill-rule="evenodd"/>
        <path id="Контур_4" data-name="Контур 4" d="M463.719,631.684h6.923a6.009,6.009,0,1,1,0,12.018H457.661a6.033,6.033,0,0,1-6.057-6.009V619.737a6.058,6.058,0,0,1,12.115,0v11.947Z" transform="translate(-433.813 -613.728)" fill="#1f1f1f" fill-rule="evenodd"/>
      </g>
    </g>
  </g>
</svg>
